{
	"data": [{
			"name": "Cindy",
			"description": "",
			"rooms": [{
					"type": 2,
					"level": 0
				},
				{
					"type": 1,
					"level": 0
				},
				{
					"type": 0,
					"level": 0
				},
				{
					"type": 4,
					"level": 1
				},
				{
					"type": 3,
					"level": 0
				},
				{
					"type": 7,
					"level": 1
				},
				{
					"type": 5,
					"level": 1
				}

			],
			"archetype": 4,
			"condition": 2,
			"decks": [{
					"info": {
						"question": "C'est quoi ton type de maisons ?",
						"response": "J'aime les maisons qui ont de grosses superficies !"
					},
					"challenge": {
						"question": "Te souviens-tu de mon type de maison ?",
						"wrongResponses": [
							"Tant que le salon est grand, tu prends !",
							"Tu préfères la finesse de mes murs.2"
						],
						"rightResponse": "Tu aimes ma grosse bâtisse."
					}
				},
				{
					"info": {
						"question": "Ce couloir m'a l'air très étroit !",
						"response": "Mes couloirs sont étroits, mais mon salon est hyper  spacieux."
					},
					"challenge": {
						"question": "Quelle  partie chez moi est très étroite ?",
						"wrongResponses": [
							"MTon salon est tout serré !",
							"Ta cave est très serrée."
						],
						"rightResponse": "Tes couloirs ! C'est les meilleurs !"
					}
				},
				{
					"info": {
						"question": "Quelles différences entre tes deux chambres ?",
						"response": "Bah on ne change pas une équipe qui gagne, j'ai fait les deux même !"
					},
					"challenge": {
						"question": "Quelle est la différence entre mes deux chambres ?",
						"wrongResponses": [
							"Il y en a une trop petite.",
							"Mais, tu n'as qu'une seule chambre ?"
						],
						"rightResponse": "Aucune, elles sont très bien proportionnées."
					}
				},
				{
					"info": {
						"question": "Tu me montrerais ta cave ?",
						"response": "Ouais, elle est cool ! Mais on serait mieux au salon non ?"
					},
					"challenge": {
						"question": "Dans quel endroit est-on le plus à l'aise chez moi ?",
						"wrongResponses": [
							"Ta cave, c'est la plus douce.",
							"Tes couloirs étroits !"
						],
						"rightResponse": "J'aimerais me mettre à l'aise dans ton salon."
					}
				},
				{
					"info": {
						"question": "On dit que le cœur de la maison c'est la cuisine.",
						"response": "Ah, mais trop pas ! Les salons sont tellement plus in !"
					},
					"challenge": {
						"question": "Pour moi, quel est le cœur de la maison ?",
						"wrongResponses": [
							"La cuisine, et Schmitt !",
							"La chambre, il s'y passe tellement de choses !"
						],
						"rightResponse": "Le salon bien sûr !"
					}
				}
			]
		},
		{
			"name": "Emilie",
			"description": "",
			"rooms": [{
					"type": 2,
					"level": 0
				},
				{
					"type": 0,
					"level": 0
				},
				{
					"type": 1,
					"level": 0
				},
				{
					"type": 4,
					"level": 0
				}
			],
			"archetype": 2,
			"condition": 0,
			"decks": [{
					"info": {
						"question": "Vous n'avez pas de problèmes de fuites ?",
						"response": "Ma salle de bain est toujours très humide !"
					},
					"challenge": {
						"question": "Quel est l'état de ma salle de bain ?",
						"wrongResponses": [
							"C'est plus sec que de la brique.",
							"Elle est dégueulasse cette salle de bain !"
						],
						"rightResponse": "Elle est tout humide."
					}
				},
				{
					"info": {
						"question": "Je vois que vous utilisez une cheminée ?",
						"response": "Oui, je n'aime pas les poêles. Mais ça fait bien longtemps que personne n'est venu me ramener. Mis à part le père Noël une fois par ans !"
					},
					"challenge": {
						"question": "Te souviens-tu comment je me chauffe ?",
						"wrongResponses": [
							"Pas besoin, vous êtes déjà une vraie chaudière !",
							"Vos poeles tiennent bien chaud !"
						],
						"rightResponse": "Avec une cheminée mal ramonée."
					}
				},
				{
					"info": {
						"question": "Combien de chambres avez-vous ?",
						"response": "Une seule, pas très spacieuse, mais on y est bien !"
					},
					"challenge": {
						"question": "Combien ai-je de chambres ?",
						"wrongResponses": [
							"Une bonne grosse chambre, bien juteuse.",
							"Deux petites chambres."
						],
						"rightResponse": "Une seule, c'est tout ce dont on a besoin."
					}
				},
				{
					"info": {
						"question": "Vos fondations m'ont l'air assez bancales !",
						"response": "C'est dans les vieilles maisons qu'on fait les meilleurs pots !"
					},
					"challenge": {
						"question": "Mon âge est un problème ?",
						"wrongResponses": [
							"Bha, ça va quand même bientôt s'effondrer !",
							"En règle générale non, mais là faut pas abuser."
						],
						"rightResponse": "Non, on ressent toute l'expérience dans votre structure."
					}
				},
				{
					"info": {
						"question": "Je vois que vous êtes amatrices de porcelaine fine !",
						"response": "Oh, merci ! Vous êtes une personne de goût !"
					},
					"challenge": {
						"question": "Quel est mon hobby ?",
						"wrongResponses": [
							"Croquer des bâtiments !",
							"Vous faire ramoner la cheminée."
						],
						"rightResponse": "La porcelaine fine."
					}
				}
			]
		},
		{
			"name": "Morgan",
			"description": "",
			"rooms": [{
					"type": 2,
					"level": 0
				},
				{
					"type": 0,
					"level": 0
				},
				{
					"type": 4,
					"level": 0
				}
			],
			"archetype": 1,
			"condition": 0,
			"decks": [{
					"info": {
						"question": "J'aime beaucoup tes volumes !",
						"response": "Merci, j'ai fait intervenir un décorateur. Il s'est occupé de mon intérieur."
					},
					"challenge": {
						"question": "Pourquoi ai-je fait appel à un décorateur ?",
						"wrongResponses": [
							"Pour qu'il s'occupe de tes courbes.",
							"Pour te rendre moins laide."
						],
						"rightResponse": "Pour qu'il s'occupe de tes intérieurs."
					}
				},
				{
					"info": {
						"question": "C'est chouette une petite chambre, c'est intimiste.",
						"response": "J'aurais aimé pouvoir y mettre un King size."
					},
					"challenge": {
						"question": "Quelle pièce je trouve trop petite chez moi ?",
						"wrongResponses": [
							"Tu aimerais élargir ton patio.",
							"Ton petit garage."
						],
						"rightResponse": "Ta petite chambre, elle est trop séré."
					}
				},
				{
					"info": {
						"question": "Tu as un jardin ?",
						"response": "Un petit ! Mais il est en friche…"
					},
					"challenge": {
						"question": "Quelle partie est en travaux chez moi ?",
						"wrongResponses": [
							"Ton hall d'entrée.",
							"Ton vilain garage."
						],
						"rightResponse": "Ton petit jardin."
					}
				},
				{
					"info": {
						"question": "Elle sert à quoi ta parabole ?",
						"response": "J'ai fait installer le câble l'autre jour."
					},
					"challenge": {
						"question": "Qu'est-ce qui a changé chez moi récemment ?",
						"wrongResponses": [
							"Tu as changé ta toiture non ?",
							"Tu t'es fait ravaler la façade."
						],
						"rightResponse": "Tu as installé le câble récemment."
					}
				},
				{
					"info": {
						"question": "Comment tu te chauffes ?",
						"response": "Bah ! Au fioul ,pourquoi ?"
					},
					"challenge": {
						"question": "Te souviens-tu comment je me chauffe ?",
						"wrongResponses": [
							"À l'aide de gros radiateurs.",
							"À l'aide d'outils électriques."
						],
						"rightResponse": "Au fioul !"
					}
				}
			]
		},
		{
			"name": "Camille",
			"description": "",
			"rooms": [{
					"type": 2,
					"level": 0
				},
				{
					"type": 0,
					"level": 0
				},
				{
					"type": 4,
					"level": 0
				}
			],
			"archetype": 1,
			"condition": 0,
			"decks": [{
					"info": {
						"question": "Ce n’est pas trop petit chez toi ?",
						"response": "Pas de soucis, mon canap est convertible."
					},
					"challenge": {
						"question": "Comment je résous mon souci de place ?",
						"wrongResponses": [
							"En aménageant les combles.",
							"Tout le monde peut entrer dans ta cave."
						],
						"rightResponse": "On tient facile dans ton canapé convertible."
					}
				},
				{
					"info": {
						"question": "C'est…sympa la moquette dans la salle de bain…",
						"response": "Ma déco n'est pas au top, mais presque tout est fonctionnel."
					},
					"challenge": {
						"question": "Quel est mon souci principal?",
						"wrongResponses": [
							"Difficile de rentrer à plusieurs.",
							"Un manque de finition."
						],
						"rightResponse": "Un souci de déco."
					}
				},
				{
					"info": {
						"question": "Sympa le concept chambre/cuisine.",
						"response": "Comme ça, le p’tit dej au lit est toujours garanti."
					},
					"challenge": {
						"question": "Qu'est-ce qui est garantie chez moi ?",
						"wrongResponses": [
							"La fumée au réveil.",
							"Tout le monde peut venir."
						],
						"rightResponse": "Le petit déjeuner au lit."
					}
				},
				{
					"info": {
						"question": "Ça fume beaucoup chez toi, t'as une cheminée ?",
						"response": "Pas vraiment, mes humains viennent de se mettre à la vap !"
					},
					"challenge": {
						"question": "Que font mes humains ?",
						"wrongResponses": [
							"Ils font une soirée mousse tous les soirs.",
							"Ils échangent leurs fluides."
						],
						"rightResponse": "Ils t'enfument."
					}
				},
				{
					"info": {
						"question": "Ça fait beaucoup la fête chez toi !",
						"response": "À donf ! Mais tout le monde ne peut pas rester dormir."
					},
					"challenge": {
						"question": "Qui peut venir en moi ?",
						"wrongResponses": [
							"Personne, tu préfères rester chaste à tout intrus.",
							"Seulement un petit groupe à la fois."
						],
						"rightResponse": "Tout le monde ne peut pas rester dormir, mais tout le monde est invité."
					}
				}
			]
		},
		{
			"name": "Robert",
			"description": "",
			"rooms": [{
					"type": 2,
					"level": 0
				},
				{
					"type": 0,
					"level": 0
				}
			],
			"archetype": 0,
			"condition": 1,
			"decks": [{
					"info": {
						"question": "T'as de jolies jantes !",
						"response": "Avec moi, pas de traces de pneus !"
					},
					"challenge": {
						"question": "Qu'est-ce qui est bien avec mes roues ?",
						"wrongResponses": [
							"Tu as de très grosses roues.",
							"Elles sont toutes lisses."
						],
						"rightResponse": "Elles ne font pas de traces de pneus."
					}
				},
				{
					"info": {
						"question": "Tu fais comment sans cuisine ?",
						"response": "Tout au barbecue mon mignon !"
					},
					"challenge": {
						"question": "Comment mes humains font pour cuisiner ?",
						"wrongResponses": [
							"Ils mettent les mains dans ta cuisine.",
							"Ils commandent, ces bandes de feignasses."
						],
						"rightResponse": "Ton barbecue tourne souvent."
					}
				},
				{
					"info": {
						"question": "T'as des w.c. séparés ?",
						"response": "Tout va au même endroit ! On ne va quand même pas décaler les chiottes ?"
					},
					"challenge": {
						"question": "Est-ce que j’ai des chiottes décalées ?",
						"wrongResponses": [
							"Oui, à l'aide d'un mécanisme complexe de tuyaux.",
							"Non, et c'est dégueulasse."
						],
						"rightResponse": "Non, tu prévois une évacuation plus…artisanale."
					}
				},
				{
					"info": {
						"question": "Tu reçois souvent ?",
						"response": "Mon lit king size est toujours plein !"
					},
					"challenge": {
						"question": "Comment est mon lit ?",
						"wrongResponses": [
							"Énorme et sec.",
							"Énorme et vide."
						],
						"rightResponse": "Énorme et pleins."
					}
				},
				{
					"info": {
						"question": "Bizarre tes toilettes ?",
						"response": "Ce sont des toilettes sèches…pas comme moi !"
					},
					"challenge": {
						"question": "Comment sont mes w.c. ?",
						"wrongResponses": [
							"À la japonaise, très mouillés.",
							"À la turque, un vrai FPS."
						],
						"rightResponse": "Tout ce qu'il y a de plus sec."
					}
				}
			]
		},
		{
			"name": "Jackie",
			"description": "",
			"rooms": [{
					"type": 2,
					"level": 2
				},
				{
					"type": 1,
					"level": 1
				},
				{
					"type": 0,
					"level": 1
				},
				{
					"type": 3,
					"level": 0
				},
				{
					"type": 4,
					"level": 1
				},
				{
					"type": 5,
					"level": 0
				},
				{
					"type": 6,
					"level": 1
				},
				{
					"type": 7,
					"level": 2
				}
			],
			"archetype": 5,
			"condition": 1,
			"decks": [{
					"info": {
						"question": "Tu as l'air de bien te protéger !",
						"response": "Ma porte est blindée, mais mon intérieur est doux et cosy !"
					},
					"challenge": {
						"question": "Tu te souviens de mon intérieur ?",
						"wrongResponses": [
							"Il est ouvert à toutes propositions.",
							"Personne ne rentre, ton intérieur est trop précieux."
						],
						"rightResponse": "Difficile d'y entrer, mais une fois dedans, on a plus envie de ressortir."
					}
				},
				{
					"info": {
						"question": "Tu aimes la culture underground ?",
						"response": "J'ai la cave la plus profonde de toute la ville !"
					},
					"challenge": {
						"question": "Comment est ma cave?",
						"wrongResponses": [
							"Trop serré pour moi.",
							"Je ne sais pas, jamais visité."
						],
						"rightResponse": "C'est la plus profonde de la ville."
					}
				},
				{
					"info": {
						"question": "Ta baignoire est reluisante !",
						"response": "Le meilleur architecte de la ville s'est occupé de ma tuyauterie !"
					},
					"challenge": {
						"question": "Comment trouves-tu ma tuyauterie ?",
						"wrongResponses": [
							"Rien de particulier.",
							"Pourquoi, des problèmes de fuites ?"
						],
						"rightResponse": "Superbe, maintenant, que le meilleur architecte est passé dessus."
					}
				},
				{
					"info": {
						"question": "Pourquoi ne pas avoir choisi une seule grande chambre?",
						"response": "Par ce que tu comptes faire dormir les gens sur un canapé ?"
					},
					"challenge": {
						"question": "Pourquoi ai-je deux chambres ?",
						"wrongResponses": [
							"Par ce que ton canapé est, trop pourrit.",
							"Tu n'as qu'une seule chambre non ?"
						],
						"rightResponse": "Pour que chacun ai un lieu pour se relaxer."
					}
				},
				{
					"info": {
						"question": "Ta façade est toute mouillée !",
						"response": "Ma fontaine s'allume quand je me sens bien."
					},
					"challenge": {
						"question": "Les maisons fontaines, ça t'excite ?",
						"wrongResponses": [
							"Non, ça en fout partout, faut nettoyer après.",
							"Oui, c'est quand même plus feng shui. "
						],
						"rightResponse": "J'aime voir ta façade toute mouillée."
					}
				}
			]
		},
		{
			"name": "Alexis",
			"description": "",
			"rooms": [{
					"type": 2,
					"level": 1
				},
				{
					"type": 0,
					"level": 1
				}
			],
			"archetype": 0,
			"condition": 2,
			"decks": [{
					"info": {
						"question": "Une baignoire dans un Mobil home ? Sympas !",
						"response": "De tous mes confrères, je suis le plus luxueux !"
					},
					"challenge": {
						"question": "Est-ce que tu me trouves sexy ?",
						"wrongResponses": [
							"T'es un mobile home… il y a mieux.",
							"Non !"
						],
						"rightResponse": "Tu es le plus beau mobile home que j'ai vu."
					}
				},
				{
					"info": {
						"question": "Question pour demander la valeur d'une info Ton lit à l'aire super moelleux !",
						"response": "Tout n'est  pas moelleux chez moi !"
					},
					"challenge": {
						"question": "Cite-moi quelque chose qui n'est pas moelleux chez moi.",
						"wrongResponses": [
							"Tes suspensions de merde.",
							"Tout !"
						],
						"rightResponse": "Je ne sais pas, ta coque ?"
					}
				},
				{
					"info": {
						"question": "Tu m'as l'aire faite pour le tout terrain !",
						"response": "Tu veux qu'on test mes suspensions ?"
					},
					"challenge": {
						"question": "Alors, on les tests ces suspensions ?",
						"wrongResponses": [
							"J'aurais trop peur de te briser.",
							"Certainement pas avec un Mobile Home."
						],
						"rightResponse": "Je vais te secouer dans tous les sens."
					}
				},
				{
					"info": {
						"question": "Je n'avais jamais vu une aussi grosse attache remorque.",
						"response": "Je ne me fais tracter que par des poids lourds !"
					},
					"challenge": {
						"question": "Te souviens-tu de qui a accès à ma grosse attache ?",
						"wrongResponses": [
							"Tu acceptes de te faire tirer par n’importe qui.",
							"Seulement ceux qui en sont dignes !"
						],
						"rightResponse": "Tu n'acceptes que des poids lourds."
					}
				},
				{
					"info": {
						"question": "Je ne vois aucune rayure, tu es rutilant !",
						"response": "Ma coque est la plus solide jamais conçue !"
					},
					"challenge": {
						"question": "Comment est ma coque ?",
						"wrongResponses": [
							"Rouillé et troué.",
							"Elle est huilée et tannée."
						],
						"rightResponse": "Impeccable et rutilante."
					}
				}
			]
		},
		{
			"name": "Raph",
			"description": "",
			"rooms": [{
					"type": 2,
					"level": 1
				},
				{
					"type": 0,
					"level": 1
				},
				{
					"type": 1,
					"level": 2
				},
				{
					"type": 4,
					"level": 0
				}
			],
			"archetype": 2,
			"condition": 2,
			"decks": [{
					"info": {
						"question": "Ambiance intimiste dans ton salon ?",
						"response": "Je préfère recevoir en petit comité."
					},
					"challenge": {
						"question": "Comment je reçois dans mon salon ?",
						"wrongResponses": [
							"Plus il y a de monde, plus il y a de fun.",
							"Tu aimes quand tout le monde participe."
						],
						"rightResponse": "En petit comité, c'est plus intimiste."
					}
				},
				{
					"info": {
						"question": "Ta cuisine m'a l'aire bien équipée !?",
						"response": "J'ai toujours été très tactile."
					},
					"challenge": {
						"question": "Te souviens-tu de ma cuisine ?",
						"wrongResponses": [
							"Oui, que des équipements écologiques.",
							"Pas très grande, mais y a ce qu'il faut."
						],
						"rightResponse": "Bien sûr, tout équipé en domotique."
					}
				},
				{
					"info": {
						"question": "Bel espace !",
						"response": "J'ai une très très grosse taxe d'habitation."
					},
					"challenge": {
						"question": "Comment est ma taxe d'habitation?",
						"wrongResponses": [
							"C'est quoi cette question ?",
							"Ce n’est pas la taille qui compte."
						],
						"rightResponse": "Très très grosse !"
					}
				},
				{
					"info": {
						"question": "T'as une pendrie ?",
						"response": "Ma chambre est un véritable hall de la mode."
					},
					"challenge": {
						"question": "Comment est ma pendrie ?",
						"wrongResponses": [
							"Un vrai garage à…",
							"Bof !"
						],
						"rightResponse": "La mode y a élu domicile."
					}
				},
				{
					"info": {
						"question": "Plutôt douche ou baignoire ?",
						"response": "Plutôt baignoire, c'est plus convivial !"
					},
					"challenge": {
						"question": "Je suis plutôt douche ou baignoire ?",
						"wrongResponses": [
							"Rien ne vaut la douche, plus tranquille.",
							"Tu ne préfères pas le Jacuzzi plutôt ?"
						],
						"rightResponse": "Baignoire, c'est plus convivial."
					}
				}
			]
		},
		{
			"name": "Didi",
			"description": "",
			"rooms": [{
					"type": 2,
					"level": 1
				},
				{
					"type": 0,
					"level": 1
				},
				{
					"type": 1,
					"level": 1
				},
				{
					"type": 4,
					"level": 1
				},
				{
					"type": 3,
					"level": 0
				},
				{
					"type": 5,
					"level": 0
				}
			],
			"archetype": 3,
			"condition": 1,
			"decks": [{
					"info": {
						"question": "Ton garage m'a l'air très spacieux !",
						"response": "On peut y entrer à deux si tu veux."
					},
					"challenge": {
						"question": "Comment as-tu trouvé mon garage ?",
						"wrongResponses": [
							"On y est un peu à l'étroit quand même.",
							"Pas top, je préfère ton vestibule."
						],
						"rightResponse": "Suffisamment large pour y entrer à plusieurs."
					}
				},
				{
					"info": {
						"question": "Tu as combien de chambres ?",
						"response": "Une petite et une grande, mais ce n’est pas la taille qui compte !"
					},
					"challenge": {
						"question": "Te souviens-tu de combien j'ai de chambres ?",
						"wrongResponses": [
							"Deux. Une grande et une petite.",
							"Une très grande chambre, seule la taille compte."
						],
						"rightResponse": "Une seul, mais bien proportionnée."
					}
				},
				{
					"info": {
						"question": "Tu as un four ?",
						"response": "Oui, et il est toujours chaud !"
					},
					"challenge": {
						"question": "Comment est mon four ?",
						"wrongResponses": [
							"C'est une image déguisée cette question ?",
							"Éteints, ça consomme trop."
						],
						"rightResponse": "Il est toujours très chaud."
					}
				},
				{
					"info": {
						"question": "Tu as un mignon petit sofa",
						"response": "Il faut se serrer pour y tenir à deux."
					},
					"challenge": {
						"question": "Comment trouves-tu mon sofa ?",
						"wrongResponses": [
							"Très moelleux et super spacieux.",
							"Tu préfères quand c'est dur non ?"
						],
						"rightResponse": "On y est à l'étroit, mais il est doux et moelleux."
					}
				},
				{
					"info": {
						"question": "Amusant, il n'y a pas de serrure sur ta porte.",
						"response": "Je suis ouvert à tous !"
					},
					"challenge": {
						"question": "Qui peut rentrer chez moi ?",
						"wrongResponses": [
							"Tant que ça rentre…",
							"Personne, tu préfères fermer la porte en cas d'intrusions."
						],
						"rightResponse": "Tu es ouvert à tous."
					}
				}
			]
		},
		{
			"name": "Gurt",
			"description": "",
			"rooms": [{
					"type": 2,
					"level": 2
				},
				{
					"type": 1,
					"level": 2
				},
				{
					"type": 0,
					"level": 2
				},
				{
					"type": 4,
					"level": 2
				},
				{
					"type": 3,
					"level": 2
				},
				{
					"type": 7,
					"level": 1
				},
				{
					"type": 5,
					"level": 2
				}
			],
			"archetype": 4,
			"condition": 1,
			"decks": [{
					"info": {
						"question": "Pour toi, le plafond idéal, c'est quoi ?",
						"response": "Le style poutres apparentes, j'adore !"
					},
					"challenge": {
						"question": "Quel est mon type de plafond ?",
						"wrongResponses": [
							"Tu aimes jouer avec ton velux.",
							"Lisses et plats !"
						],
						"rightResponse": "Tu aimes les grosses poutres apparentes."
					}
				},
				{
					"info": {
						"question": "J'aime ta façade de pierres saillantes !",
						"response": "Chez moi, tout est naturel !"
					},
					"challenge": {
						"question": "Comment me définirais-tu ?",
						"wrongResponses": [
							"Comme quelqu'un de renfermé.",
							"Comme quelqu'un de dynamique."
						],
						"rightResponse": "Comme quelqu'un de naturel."
					}
				},
				{
					"info": {
						"question": "Tu aimes la cuisine ?",
						"response": "Avec ma centrifugeuse, je me fais des menus véganes full prot !"
					},
					"challenge": {
						"question": "Qu'est-ce que je fais dans ma cuisine ?",
						"wrongResponses": [
							"Tu aimes lustrer tes ustensiles.",
							"Tu cuisines du Bio seulement."
						],
						"rightResponse": "Des menus véganes ultras protéinés."
					}
				},
				{
					"info": {
						"question": "Ton garage est bien vide !",
						"response": "Nan, je laisse de la place pour le matos de mes potes."
					},
					"challenge": {
						"question": "QTe souviens-tu de l'état de mon garage ?",
						"wrongResponses": [
							"Tu aimes le remplir souvent.",
							"Tu y ranges toute sorte d'objets de fitness."
						],
						"rightResponse": "Tu le laisses vide pour que tes potes s'y installent."
					}
				},
				{
					"info": {
						"question": "J'adore ton écran géant dans le salon !",
						"response": "Y a pas que ça de géant chez moi…"
					},
					"challenge": {
						"question": "Qu'est-ce qui est géant chez moi?",
						"wrongResponses": [
							"Ton égal peut-être ?",
							"Absolument rien, tout est rikiki."
						],
						"rightResponse": "Ta télévision est énorme."
					}
				}
			]
		},
		{
			"name": "Dave",
			"description": "",
			"rooms": [{
					"type": 2,
					"level": 2
				},
				{
					"type": 0,
					"level": 2
				},
				{
					"type": 4,
					"level": 2
				}
			],
			"archetype": 1,
			"condition": 2,
			"decks": [{
					"info": {
						"question": "Tu préfères que tes humains rentrent par où ?",
						"response": "L'entrée est en travaux, mais ils peuvent toujours prendre la porte de derrière."
					},
					"challenge": {
						"question": "Par où rentrent mes humains ?",
						"wrongResponses": [
							"Par la porte d'entrée.",
							"Par la fenêtre d'en haut."
						],
						"rightResponse": "Par ta porte de derrière."
					}
				},
				{
					"info": {
						"question": "T'as l'air à la pointe !",
						"response": "La fibre c'est la vie, j'aime le haut débit !"
					},
					"challenge": {
						"question": "Comment est ma connexion ?",
						"wrongResponses": [
							"Tu fais encore joujou avec ton minitel ?",
							"Je ne sais pas, contacte ton fournisseur."
						],
						"rightResponse": "T'es équipé en fibre optique."
					}
				},
				{
					"info": {
						"question": "Il y a beaucoup de passage dans le coin ?",
						"response": "Ouais, heureusement que ma chambre est suffisamment grande pour accueillir tout le monde !"
					},
					"challenge": {
						"question": "Comment est ma chambre ?",
						"wrongResponses": [
							"Toute petite n’y a pas de place pour beaucoup de monde.",
							"Très grande, mais le lit est trop petit."
						],
						"rightResponse": "Suffisamment, grande pour accueillir tout le monde."
					}
				},
				{
					"info": {
						"question": "Tu sors beaucoup le soir ?",
						"response": "Nan, je préfère dormir !"
					},
					"challenge": {
						"question": "Te souviens-tu si je sors beaucoup en soirée ?",
						"wrongResponses": [
							"Tu ne fais que ça.",
							"Tu organises chez toi, c'est plus simple."
						],
						"rightResponse": "Nan, tu préfères dormir."
					}
				},
				{
					"info": {
						"question": "Cool ta plomberie chromée !",
						"response": "J'apporte peu d'importance à mon apparence, mais j'aime mon confort."
					},
					"challenge": {
						"question": "Qu'est-ce qui est le mieux pour moi ? Apparence ou confort ?",
						"wrongResponses": [
							"Tu préfères ton confort avant tout.",
							"Tu t'en fous complètement."
						],
						"rightResponse": "Apparence, même si ton confort importe beaucoup."
					}
				}
			]
		},
		{
			"name": "Michelle",
			"description": "",
			"rooms": [{
					"type": 2,
					"level": 2
				},
				{
					"type": 1,
					"level": 1
				},
				{
					"type": 0,
					"level": 2
				},
				{
					"type": 3,
					"level": 2
				},
				{
					"type": 4,
					"level": 2
				},
				{
					"type": 5,
					"level": 2
				},
				{
					"type": 6,
					"level": 2
				},
				{
					"type": 7,
					"level": 2
				}
			],
			"archetype": 5,
			"condition": 2,
			"decks": [{
					"info": {
						"question": "Votre entrée à l'air bien sombre.",
						"response": "Mon hall est peut-être très étroit, mais on s'y sent bien !"
					},
					"challenge": {
						"question": "Alors, on s'y sent bien dans mon hall d'entrée ?",
						"wrongResponses": [
							"Il est un peu trop large pour moi.",
							"J'ai connu mieux."
						],
						"rightResponse": "Il a beau être étroit et sombre, ton hall d'entrée est super."
					}
				},
				{
					"info": {
						"question": "Je vois le reflet du ciel sur tes vitres.",
						"response": "Et mes fenêtres, tu les aimes mes fenêtres ?"
					},
					"challenge": {
						"question": "Comment sont mes  fenêtres ?",
						"wrongResponses": [
							"Tu t'es pris pour Bardot ?",
							"Je préfère tes jolies petites portes."
						],
						"rightResponse": "Mais oui, elles sont belles tes fenêtres."
					}
				},
				{
					"info": {
						"question": "Tes gouttières débordent ?",
						"response": "Non,j'ai une piscine à débordement."
					},
					"challenge": {
						"question": "Comment est ma piscine ?",
						"wrongResponses": [
							"C'est une piscine à bulle ?",
							"Tant que tout le monde est mouillé…"
						],
						"rightResponse": "Une belle piscine à débordement."
					}
				},
				{
					"info": {
						"question": "Tes chambres sont-elles climatisées ?",
						"response": "J'ai de très grandes bouches d'aérations !"
					},
					"challenge": {
						"question": "Tu te souviens comment mes chambres sont climatisées.",
						"wrongResponses": [
							"À force de laisser n’importe qui entrer, ça crée des courants d'air.",
							"T'as une très grosse climatisation."
						],
						"rightResponse": "À l'aide de tes grandes bouches d'aérations."
					}
				},
				{
					"info": {
						"question": "Pourquoi ta cuisine brille comme ça ?",
						"response": "Mon plan de travail est humide."
					},
					"challenge": {
						"question": "Comment sont mes plans de travail ?",
						"wrongResponses": [
							"Propres et rangés, rien ne dépasse.",
							"Bien luisants et huilés."
						],
						"rightResponse": "Bien humides et brillants !"
					}
				}
			]
		}
	]
}